464235 3
-------------------------
1 0 6 0 600000000 427404523 0
2 0 3 0 225238282 300000000 0
4 0 1 0 204274055 300000000 0
8 0 0 0 0 300000000 600000000
9 1 1 204274055 204274055 0 600000000
5 2 3 211487035 225238282 0 0
10 2 2 211487035 211487035 0 600000000
11 3 3 225238282 225238282 0 600000000
3 4 6 234981593 600000000 427404523 127404524
6 4 5 234981593 254809046 427404523 127404524
12 4 4 234981593 234981593 0 600000000
13 5 5 254809046 254809046 427404523 127404524
7 6 6 600000000 600000000 0 300000001
-------------------------
10760710 0
-------------------------
1 0 6 0 600000000 427404523 0
2 0 3 0 225238282 300000000 0
4 0 1 0 204274055 300000000 0
8 0 0 0 0 300000000 600000000
9 1 1 204274055 204274055 0 600000000
5 2 3 211487035 225238282 0 0
10 2 2 211487035 211487035 0 600000000
11 3 3 225238282 225238282 0 600000000
3 4 6 234981593 600000000 427404523 117490797
6 4 5 234981593 254809046 427404523 117490797
12 4 4 234981593 234981593 417490796 117490797
13 5 5 254809046 254809046 427404523 127404524
7 6 6 600000000 600000000 0 300000001
-------------------------
14095759 1
-------------------------
1 0 6 0 600000000 427404523 0
2 0 3 0 225238282 300000000 0
4 0 1 0 204274055 300000000 102137028
8 0 0 0 0 300000000 600000000
9 1 1 204274055 204274055 229541550 102137028
5 2 3 211487035 225238282 0 0
10 2 2 211487035 211487035 0 600000000
11 3 3 225238282 225238282 0 600000000
3 4 6 234981593 600000000 427404523 117490797
6 4 5 234981593 254809046 427404523 117490797
12 4 4 234981593 234981593 417490796 117490797
13 5 5 254809046 254809046 427404523 229541551
7 6 6 600000000 600000000 0 300000001
-------------------------
27483928 4
-------------------------
1 0 6 0 600000000 427404523 102137028
2 0 3 0 225238282 405743517 102137028
4 0 1 0 204274055 300000000 102137028
8 0 0 0 0 300000000 600000000
9 1 1 204274055 204274055 229541550 102137028
5 2 3 211487035 225238282 405743517 105743518
10 2 2 211487035 211487035 405743517 105743518
11 3 3 225238282 225238282 0 600000000
3 4 6 234981593 600000000 427404523 117490797
6 4 5 234981593 254809046 427404523 117490797
12 4 4 234981593 234981593 417490796 117490797
13 5 5 254809046 254809046 427404523 229541551
7 6 6 600000000 600000000 0 300000001
-------------------------
27675595 2
-------------------------
1 0 6 0 600000000 427404523 102137028
2 0 3 0 225238282 412619141 102137028
4 0 1 0 204274055 229541550 102137028
8 0 0 0 0 117490796 600000000
9 1 1 204274055 204274055 229541550 102137028
5 2 3 211487035 225238282 412619141 105743518
10 2 2 211487035 211487035 405743517 105743518
11 3 3 225238282 225238282 412619141 112619142
3 4 6 234981593 600000000 427404523 117490797
6 4 5 234981593 254809046 427404523 117490797
12 4 4 234981593 234981593 417490796 117490797
13 5 5 254809046 254809046 427404523 229541551
7 6 6 600000000 600000000 0 405743518
-------------------------
24630956
