2
2
4
8
16
32
64
128
256
512
1024
2048
4096
4096
8192
16384
32768
65536
63
3
973129099
785032743
371842544
755810045
560523804
533524785
128
128
128
536396504
949480669
2048
797922655
33554432
65536
560523804
32768
46480318
73741817
986564553
164688009
438952513
4
747046415
32
986564553
512
80065005
8192
268435456
487370169
4
262144
317504065
993282280
67108864
294967268
164688009
383381198
32
33554432
4096
131072
124160285
92960636
124160285
1024
560523804
877905026
33554432
124160285
281040073
487370169
524288
487370169
892516375
766762396
540032506
280261902
131072
67049563
536870912
877905026
635008130
128
936761609
658752036
16
383381198
936761609
18991360
125009274
614614431
737048791
225781114
32331046
80656458
86428326
963316903
737048791
