0 ---------------- 
-----------------------

1
display l:
display r:
1 ---------------- 
-----------------------

2
display l:
display r:
2 ---------------- 
0 40 0
1 72 0
-----------------------

3
display l:
0 40 0
1 72 0
display r:
3 ---------------- 
0 36 2
1 72 0
-----------------------

4
display l:
display r:
0 36 2
1 68 2
4 ---------------- 
0 34 2
1 68 2
-----------------------

5
display l:
display r:
0 34 2
1 66 2
5 ---------------- 
0 32 2
1 66 2
-----------------------

6
display l:
display r:
0 32 2
1 64 2
6 ---------------- 
0 32 1
1 64 2
-----------------------

7
display l:
0 32 1
1 64 1
display r:
7 ---------------- 
0 30 3
1 64 1
-----------------------

8
display l:
display r:
0 30 3
1 62 3
8 ---------------- 
0 29 2
1 62 3
-----------------------

9
display l:
display r:
0 29 2
1 61 2
9 ---------------- 
0 29 1
1 61 2
-----------------------

10
display l:
0 29 1
1 61 1
display r:
10 ---------------- 
0 28 9
1 61 1
-----------------------

11
display l:
display r:
0 28 9
1 60 9
11 ---------------- 
0 28 2
1 60 9
-----------------------

12
display l:
0 28 2
1 60 2
display r:
12 ---------------- 
0 27 9
1 60 2
-----------------------

13
display l:
display r:
0 27 9
1 59 9
13 ---------------- 
0 27 5
1 59 9
-----------------------

14
display l:
0 27 5
1 59 5
display r:
14 ---------------- 
0 26 11
1 59 5
-----------------------

15 ---------------- 
0 26 11
1 59 5
-----------------------

504
984
